<?xml version="1.0" standalone="no"?>
<!--
  ~ Madkting Software (http://www.madkting.com)
  ~
  ~                                      ..-+::moossso`:.
  ~                                    -``         ``ynnh+.
  ~                                 .d                 -mmn.
  ~     .od/hs..sd/hm.   .:mdhn:.   yo                 `hmn. on     mo omosnomsso oo  .:ndhm:.   .:odhs:.
  ~    :hs.h.shhy.d.mh: :do.hd.oh:  /h                `+nm+  dm   ys`  ````mo```` hn :ds.hd.yo: :oh.hd.dh:
  ~    ys`   `od`   `h+ sh`    `do  .d`              `snm/`  +s hd`        hd     yy yo`    `sd oh`    ```
  ~    hh     sh     +m hs      yy   y-            `+mno`    dkdm          +d     o+ no      ss ys    dosd
  ~    y+     ss     oh hdsomsmnmy   ++          .smh/`      om ss.        dh     mn yo      oh sm      hy
  ~    sh     ho     ys hs``````yy   .s       .+hh+`         ys   hs.      os     yh os      d+ od+.  ./m/
  ~    od     od     od od      od   +y    .+so:`            od     od     od     od od      od  `syssys`
  ~                                 .ys .::-`
  ~                                o.+`
  ~
  ~ @category Module
  ~ @package Madkting\Connect
  ~ @author Carlos Guillermo Jiménez Salcedo <guillermo@madkting.com>
  ~ @link https://bitbucket.org/madkting/magento2
  ~ @copyright Copyright (c) 2017 Madkting Software.
  ~ @license See LICENSE.txt for license details.
  -->

<!DOCTYPE svg PUBLIC "-//W3C//DTD SVG 1.1//EN" "http://www.w3.org/Graphics/SVG/1.1/DTD/svg11.dtd" >
<svg xmlns="http://www.w3.org/2000/svg">
<metadata>Generated by IcoMoon</metadata>
<defs>
<font id="icomoon" horiz-adv-x="1024">
<font-face units-per-em="1024" ascent="960" descent="-64" />
<missing-glyph horiz-adv-x="1024" />
<glyph unicode="&#x20;" horiz-adv-x="512" d="" />
<glyph unicode="&#xe800;" glyph-name="logo" d="M742.335 372.485c-51.914-57.709-129.426-86.973-230.366-86.973s-178.165 29.141-230.059 86.625c-62.747 69.484-78.024 167.455-80.953 228.338l-102.394-6.144c3.83-76.509 24.104-198.296 106.92-290.348 72.167-80.195 175.278-120.825 306.485-120.825s234.318 40.671 306.485 120.825c82.816 92.052 103.090 213.839 106.879 290.409l-102.23 6.144c-2.806-60.72-17.96-158.239-80.768-228.052z" />
</font></defs></svg>